CARA	1/31/2014
NWHM	1/31/2014
RARE	1/31/2014
MBUU	1/31/2014
SNOW	1/31/2014
TRVN	1/31/2014
CLDN	1/30/2014
DRNA	1/30/2014
NADL	1/29/2014
RICE	1/24/2014
CRCM	1/24/2014
AKER	1/23/2014
SC	1/23/2014
RSPP	1/17/2014
EPE	1/17/2014
HCACU	1/17/2014
HELI	1/17/2014
CELP	1/15/2014
GLYC	1/10/2014
RTRX	1/10/2014
VRNS	2/28/2014
LMNS	2/27/2014
SMLR	2/21/2014
INGN	2/14/2014
IBP	2/13/2014
AMDA	2/13/2014
BLVDU	2/13/2014
CNCE	2/13/2014
EGRX	2/12/2014
FLXN	2/12/2014
TLMR	2/12/2014
NRX	2/11/2014
GPRK	2/7/2014
ARGS	2/7/2014
EBIO	2/6/2014
EGLT	2/6/2014
LADR	2/6/2014
RVNC	2/6/2014
QURE	2/5/2014
GNCA	2/5/2014
CBPX	2/5/2014
ASPX	2/5/2014
BIOC	2/5/2014
BRG	3/28/2014
CBSO	3/28/2014
EVDY	3/28/2014
HIVE	3/28/2014
TWOU	3/28/2014
WATT	3/28/2014
OXBRU	3/27/2014
SQBK	3/27/2014
TNET	3/27/2014
AGTC	3/27/2014
KING	3/26/2014
NORD	3/26/2014
AMBR	3/21/2014
ATEN	3/21/2014
BRDR	3/21/2014
RTGN	3/21/2014
VSAR	3/21/2014
QTWO	3/20/2014
AKBA	3/20/2014
MDWD	3/20/2014
PCTY	3/19/2014
RXDX	3/14/2014
CSLT	3/14/2014
DPRX	3/13/2014
GLMD	3/13/2014
AKAO	3/12/2014
AQXP	3/7/2014
COUP	3/7/2014
REPH	3/7/2014
BGSF	4/29/2014
EVAR	4/25/2014
VGGL	4/25/2014
QTNTU	4/25/2014
VTL	4/17/2014
SABR	4/17/2014
SPWH	4/17/2014
LEJU	4/17/2014
MC	4/16/2014
TRIV	4/16/2014
PAYC	4/15/2014
CIO	4/15/2014
WB	4/14/2014
ZOES	4/11/2014
PAHC	4/11/2014
PRGB	4/11/2014
FPI	4/11/2014
ENBL	4/11/2014
CERU	4/10/2014
ADMS	4/10/2014
ALLY	4/10/2014
SYRX	4/10/2014
KANG	4/9/2014
LQ	4/9/2014
OPWR	4/4/2014
GRUB	4/4/2014
FIVN	4/4/2014
CORI	4/3/2014
TEDU	4/3/2014
RUBI	4/2/2014
PIH	4/1/2014
RESN	5/29/2014
PE	5/23/2014
AGRX	5/23/2014
HRTG	5/23/2014
SDPI	5/23/2014
SEMI	5/22/2014
TGEN	5/20/2014
TRUE	5/16/2014
JMEI	5/16/2014
OUNZ	5/16/2014
BWFG	5/15/2014
ZEN	5/15/2014
SFBS	5/14/2014
TOUR	5/9/2014
PBFX	5/9/2014
CMCM	5/8/2014
KTWO	5/8/2014
LPG	5/8/2014
ALDR	5/8/2014
GLOP	5/7/2014
SCYX	5/2/2014
FRSH	5/2/2014
ALDX	5/2/2014
ARES	5/2/2014
MIK	6/27/2014
MOKO	6/27/2014
NEP	6/27/2014
SERV	6/26/2014
TCPI	6/26/2014
GGACU	6/26/2014
GPRO	6/26/2014
IMPR	6/25/2014
ADPT	6/25/2014
AMPH	6/25/2014
MTLS	6/25/2014
XNET	6/24/2014
ECR	6/20/2014
KITE	6/20/2014
ARDX	6/19/2014
ZFGN	6/19/2014
MRKT	6/19/2014
ZSPH	6/18/2014
VNOM	6/18/2014
PARN	6/18/2014
SGNL	6/18/2014
FELP	6/18/2014
CCS	6/18/2014
ABY	6/13/2014
ASPN	6/13/2014
MRD	6/13/2014
MOBL	6/12/2014
TSE	6/12/2014
NAO	6/12/2014
ZPIN	6/12/2014
WLRHU	6/6/2014
RDUS	6/6/2014
ANET	6/6/2014
AAVL	7/31/2014
CTLT	7/31/2014
HQY	7/31/2014
MCUR	7/31/2014
MRNS	7/31/2014
ORPN	7/31/2014
RIGP	7/31/2014
SYF	7/31/2014
WLKP	7/30/2014
SPKE	7/29/2014
CFRXU	7/29/2014
INNL	7/25/2014
LOCO	7/25/2014
OCUL	7/25/2014
OEC	7/25/2014
WMS	7/25/2014
XENT	7/24/2014
TSQ	7/24/2014
PFNX	7/24/2014
IMDZ	7/24/2014
MTBC	7/23/2014
GLOB	7/18/2014
SAGE	7/18/2014
TUBE	7/18/2014
TERP	7/18/2014
TRUP	7/18/2014
TRTLU	7/17/2014
ROKA	7/17/2014
CDNA	7/17/2014
IRMD	7/16/2014
TFSCU	7/16/2014
CHTF	7/9/2014
GBIM	7/2/2014
ISTR	7/1/2014
NERV	7/1/2014
SMACU	8/27/2014
BNK	8/14/2014
OTIC	8/13/2014
RYI	8/8/2014
GNBC	8/8/2014
ICD	8/8/2014
HMLP	8/7/2014
DSKY	8/7/2014
TTOO	8/7/2014
EARS	8/6/2014
FCB	8/1/2014
LOXO	8/1/2014
MBLY	8/1/2014
VTTI	8/1/2014
GWGH	9/25/2014
CNNX	9/25/2014
TVPT	9/25/2014
VTAE	9/24/2014
CYBR	9/24/2014
SFS	9/24/2014
ICL	9/24/2014
MDLY	9/24/2014
CFG	9/24/2014
AVAL	9/23/2014
BABA	9/19/2014
PRQR	9/18/2014
FOMX	9/18/2014
TKAI	9/17/2014
CIVI	9/17/2014
RWLK	9/12/2014
AFMD	9/12/2014
BOOT	10/30/2014
FSAM	10/30/2014
SHLX	10/29/2014
SIEN	10/29/2014
SIGL	10/29/2014
SIGL	10/29/2014
HDRAU	10/24/2014
DBVT	10/22/2014
ABCW	10/22/2014
PRTO	10/22/2014
ZAYO	10/17/2014
ATRA	10/16/2014
DM	10/15/2014
FWP	10/15/2014
GWB	10/15/2014
PLAY	10/10/2014
DPLO	10/10/2014
GBSN	10/9/2014
HUBS	10/9/2014
MOLG	10/9/2014
OMAM	10/9/2014
USDP	10/9/2014
VBTX	10/9/2014
TXHD	10/8/2014
FMSA	10/3/2014
DERM	10/3/2014
YDLE	10/3/2014
JPEP	10/2/2014
ATTO	10/2/2014
AUMAU	10/2/2014
AAC	10/2/2014
CALA	10/2/2014
VWR	10/2/2014
W	10/2/2014
SMFI	10/2/2014
VSLR	10/1/2014
VBLT	10/1/2014
CADTU	10/1/2014
NEFF	11/21/2014
SKIS	11/21/2014
NEOT	11/20/2014
HABT	11/20/2014
CNV	11/20/2014
EYES	11/19/2014
STOR	11/18/2014
EHIC	11/18/2014
FGEN	11/14/2014
LMRK	11/14/2014
NDRM	11/14/2014
VA	11/14/2014
PRAH	11/13/2014
SKYS	11/13/2014
NAP	11/13/2014
CAPN	11/13/2014
AXTA	11/12/2014
JYNT	11/11/2014
INCR	11/7/2014
FRPT	11/7/2014
TBK	11/7/2014
UPLD	11/6/2014
CHRS	11/6/2014
NVRO	11/6/2014
AM	11/5/2014
XENE	11/5/2014
SNC	11/3/2014
JUNO	12/19/2014
MDVXU	12/19/2014
BLCM	12/18/2014
ONDK	12/17/2014
RMP	12/17/2014
WK	12/12/2014
MPG	12/12/2014
NEWR	12/12/2014
CNLMU	12/12/2014
CNXR	12/12/2014
FCAU	12/12/2014
HDP	12/12/2014
AVOL	12/12/2014
JRVR	12/12/2014
LC	12/11/2014
MOMO	12/11/2014
HSGX	12/3/2014
AVGR	1/30/2015
HIFR	1/30/2015
ONCE	1/30/2015
SHAK	1/30/2015
TCON	1/30/2015
LENS	1/29/2015
FLKS	1/29/2015
ENTL	1/29/2015
ASND	1/28/2015
ZSAN	1/27/2015
EURN	1/23/2015
BOX	1/23/2015
ICBK	1/16/2015
PN	1/16/2015
QPACU	1/16/2015
TONS	2/20/2015
RISE	2/19/2015
CHEKU	2/19/2015
ITEK	2/18/2015
FNTCU	2/13/2015
AJX	2/13/2015
BLPH	2/13/2015
NVTA	2/12/2015
INOV	2/12/2015
AVNU	2/10/2015
BHACU	2/6/2015
CPPL	2/6/2015
DEA	2/6/2015
NVET	2/5/2015
JCAP	3/27/2015
FSB	3/26/2015
SEDG	3/26/2015
CLLS	3/25/2015
HRMNU	3/24/2015
TANH	3/24/2015
STDY	3/20/2015
NCOM	3/19/2015
SUM	3/12/2015
MXPT	3/6/2015
SMMT	3/5/2015